{
    "codice": "TSI.1.0.0",
    "release": "1.0",
    "releaseDate": "2017-02-14",
    "nome": "Box Testo e Immagini Laterali",
    "duplicabile": true,
    "descrizione": "Box di testo con 2 immagini posizionate ai lati destro e sinistro.",
    "author": "Matteo",
    "backEnd": {
        "class": "",
        "method": ""
    },
    "assets": {
        "css": [
            "/node_modules/aos/dist/aos.css"
        ],
        "js": [
            "/node_modules/aos/dist/aos.js"
        ]
    },
    "config": [
        {
            "var": "bg_color",
            "label": "Colore di Sfondo",
            "type": "simpleText",
            "default": "",
            "multilang": false,
            "mandatory": true
        },
        {
            "var": "titolo",
            "label": "Titolo",
            "type": "simpleText",
            "default": "",
            "multilang": true,
            "mandatory": true
        },
        {
            "var": "sottotitolo",
            "label": "Sottotitolo",
            "type": "mediumText",
            "default": "",
            "multilang": true,
            "mandatory": true
        },
        {
            "var": "testo",
            "label": "Testo",
            "type": "mediumText",
            "default": "",
            "multilang": true,
            "mandatory": true
        },
        {
            "var": "immagine_sx",
            "label": "Immagine",
            "type": "image",
            "types": [
                "jpg",
                "png",
                "gif",
                "jpeg"
            ],
            "dimensioni": "500x800",
            "mandatory": true,
            "multilang": false
        },
        {
            "var": "immagine_dx",
            "label": "Immagine",
            "type": "image",
            "types": [
                "jpg",
                "png",
                "gif",
                "jpeg"
            ],
            "dimensioni": "500x800",
            "mandatory": true,
            "multilang": false
        }
    ]
}
