{
    "codice": "SD.2.0.0",
    "release": "1.0",
    "releaseDate": "2017-02-08",
    "duplicabile": true,
    "descrizione": "Modulo per indicare una data di partenza ed una di arrivo, con form pop-up per richiesta informazioni",
    "assets": {
        "css": [
            "/node_modules/eonasdan-bootstrap-datetimepicker/build/css/bootstrap-datetimepicker.min.css"
        ],
        "js": [
            "/node_modules/moment/min/moment-with-locales.min.js",
            "/node_modules/eonasdan-bootstrap-datetimepicker/build/js/bootstrap-datetimepicker.min.js",
            "/node_modules/jquery-form/dist/jquery.form.min.js"
        ]
    }
}