{
    "codice": "RT.2.0.0",
    "release": "1.0",
    "releaseDate": "2017-01-25",
    "descrizione": "Un semplice modulo che permette l'inserimento di un testo ricco tramite l'editor CKeditor (utilizzare le liste per creare degli elementi che vanno a capo insieme)",
    "duplicabile": true
}