{
    "codice": "SBS.1.0.0",
    "release": "1.0",
    "releaseDate": "2017-01-25",
    "nome": "Step By Step",
    "descrizione": "Modulo per l'inserimento di un'animazione con massimo 5 immagini con numerino che scorrono in automatico",
    "assets": {
        "js": [
            "/node_modules/waypoints/lib/jquery.waypoints.min.js",
            "/node_modules/jquery-match-height/dist/jquery.matchHeight-min.js"
        ]
    },
    "config": [
        {
            "var": "titolo",
            "label": "Titolo",
            "type": "simpleText",
            "multilang": true,
            "mandatory": true
        },
        {
            "var": "step1_sottotitolo",
            "label": "Sottotitolo Step 1",
            "type": "simpleText",
            "mandatory": true,
            "multilang": true
        },
        {
            "var": "step1_testo",
            "label": "Testo Step 1",
            "type": "mediumText",
            "mandatory": true,
            "multilang": true
        },
        {
            "var": "step2_sottotitolo",
            "label": "Sottotitolo Step 2",
            "type": "simpleText",
            "mandatory": true,
            "multilang": true
        },
        {
            "var": "step2_testo",
            "label": "Testo Step 2",
            "type": "mediumText",
            "mandatory": true,
            "multilang": true
        },
        {
            "var": "step3_sottotitolo",
            "label": "Sottotitolo Step 3",
            "type": "simpleText",
            "mandatory": true,
            "multilang": true
        },
        {
            "var": "step3_testo",
            "label": "Testo Step 3",
            "type": "mediumText",
            "mandatory": true,
            "multilang": true
        },
        {
            "var": "step4_sottotitolo",
            "label": "Sottotitolo Step 1",
            "type": "simpleText",
            "mandatory": true,
            "multilang": true
        },
        {
            "var": "step4_testo",
            "label": "Testo Step 1",
            "type": "mediumText",
            "mandatory": true,
            "multilang": true
        },
        {
            "var": "step5_sottotitolo",
            "label": "Sottotitolo Step 1",
            "type": "simpleText",
            "mandatory": true,
            "multilang": true
        },
        {
            "var": "step5_testo",
            "label": "Testo Step 1",
            "type": "mediumText",
            "mandatory": true,
            "multilang": true
        },
        {
            "var": "img1",
            "label": "Immagine 1",
            "type": "backgroundImage",
            "dimensioni": "670x515",
            "types": [
                "png"
            ],
            "multilang": false,
            "mandatory": false,
            "group": "images"
        },
        {
            "var": "img2",
            "label": "Immagine 2",
            "type": "backgroundImage",
            "dimensioni": "670x515",
            "types": [
                "png"
            ],
            "multilang": false,
            "mandatory": false,
            "group": "images"
        },
        {
            "var": "img3",
            "label": "Immagine 3",
            "type": "backgroundImage",
            "dimensioni": "670x515",
            "types": [
                "png"
            ],
            "multilang": false,
            "mandatory": false,
            "group": "images"
        },
        {
            "var": "img4",
            "label": "Immagine 4",
            "type": "backgroundImage",
            "dimensioni": "670x515",
            "types": [
                "png"
            ],
            "multilang": false,
            "mandatory": false,
            "group": "images"
        },
        {
            "var": "img5",
            "label": "Immagine 5",
            "type": "backgroundImage",
            "dimensioni": "670x515",
            "types": [
                "png"
            ],
            "multilang": false,
            "mandatory": false,
            "group": "images"
        }
    ]
}
