{
    "nome": "Ecommerce - Menu' Utente ",
    "duplicabile": true,
    "backEnd": {
        "class": "Webtek\\EcommerceBundle\\DataFormatter\\RegistrationFormatter",
        "method": "getLogin"
    }
}