{
    "codice": "A.1.0.0",
    "release": "1.0",
    "releaseDate": "2017-01-25",
    "nome": "Indirizzo",
    "descrizione": "Permette l'inserimento di un indirizzo con link alle'email",
    "duplicabile": true,
    "config": [
        {
            "var": "titolo",
            "label": "Titolo",
            "type": "simpleText",
            "multilang": true,
            "mandatory": true
        },
        {
            "var": "riga1",
            "label": "Riga 1 indirizzo",
            "type": "simpleText",
            "multilang": true,
            "mandatory": true
        },
        {
            "var": "riga2",
            "label": "Riga 2 indirizzo",
            "type": "simpleText",
            "multilang": true,
            "mandatory": true
        },
        {
            "var": "riga3",
            "label": "Riga 3 indirizzo",
            "type": "simpleText",
            "multilang": true,
            "mandatory": true
        },
        {
            "var": "riga4",
            "label": "Riga 4 indirizzo (link)",
            "type": "link",
            "multilang": true,
            "mandatory": true
        }
    ]
}
