{
    "nome": "Ecommerce Registazione - Ghebagas",
    "duplicabile": true,
    "backEnd": {
        "class": "\\Webtek\\EcommerceBundle\\DataFormatter\\RegistrationFormatter",
        "method": "getRegistration"
    },
    "config": [
        {
            "var": "text",
            "label": "Testo",
            "type": "mediumText",
            "default": "<p>Registrati inserendo i tuoi dati di spedizione e potrai proseguire con gli acquisti su POV-STORE.<br><br>Al termine della registrazione riceverai una mail di riepilogo al tuo indirizzo di posta elettronica e potrai effettuare il login.<br>I campi contrassegnati da * sono obbligatori </p>",
            "multilang": false,
            "mandatory": true
        }
    ]
}