{
    "codice": "TBTIR.2.0.0",
    "release": "2.0",
    "releaseDate": "2017-03-23",
    "descrizione": "Modulo con titolo, testo a sinistra e immagine a destra",
    "author": "Nicola Saccucci",
    "assets": {
        "css": [
            "/node_modules/aos/dist/aos.css"
        ],
        "js": [
            "/node_modules/aos/dist/aos.js",
            "/node_modules/jquery-match-height/dist/jquery.matchHeight-min.js"
        ]
    }
}
