{
    "nome": "Area di testo ricca",
    "descrizione": "Un semplice modulo che permette l'inserimento di un testo ricco tramite l'editor CKeditor",
    "duplicabile": true,
    "config": [
        {
            "var": "richText",
            "label": "Testo",
            "type": "mediumText",
            "multilang": true,
            "mandatory": true
        }
    ]
}