<?xml version="1.0" standalone="no"?>
<!DOCTYPE svg PUBLIC "-//W3C//DTD SVG 1.1//EN" "http://www.w3.org/Graphics/SVG/1.1/DTD/svg11.dtd">
<svg xmlns="http://www.w3.org/2000/svg">
<metadata>Copyright (C) 2017 by original authors @ fontello.com</metadata>
<defs>
<font id="fontello" horiz-adv-x="1000" >
<font-face font-family="fontello" font-weight="400" font-stretch="normal" units-per-em="1000" ascent="850" descent="-150" />
<missing-glyph horiz-adv-x="1000" />
<glyph glyph-name="tre-intero" unicode="&#xe800;" d="M85 610c-19 0-35-15-35-34l0-452c0-19 16-34 35-34l822 0c20 0 35 15 35 34l0 452c0 19-15 34-35 34l-822 0z" horiz-adv-x="1000" />

<glyph glyph-name="due-uno" unicode="&#xe801;" d="M772 616c-19 0-35-15-35-35l0-462c0-20 16-35 35-35l140 0c20 0 36 15 36 35l0 462c0 20-16 35-36 35l-140 0z m-689-4c-19 0-35-15-35-35l0-454c0-20 16-35 35-35l469 0c19 0 35 15 35 35l0 454c0 20-16 35-35 35l-469 0z" horiz-adv-x="1000" />

<glyph glyph-name="uno-due" unicode="&#xe802;" d="M84 616c-20 0-36-15-36-35l0-462c0-20 16-35 36-35l140 0c20 0 36 15 36 35l0 462c0 20-16 35-36 35l-140 0z m360-4c-19 0-35-15-35-35l0-454c0-20 16-35 35-35l469 0c19 0 35 15 35 35l0 454c0 20-16 35-35 35l-469 0z" horiz-adv-x="1000" />

<glyph glyph-name="tre" unicode="&#xe803;" d="M80 616c-20 0-36-15-36-35l0-462c0-20 16-35 36-35l140 0c20 0 36 15 36 35l0 462c0 20-16 35-36 35l-140 0z m346 0c-20 0-36-15-36-35l0-462c0-20 16-35 36-35l140 0c20 0 36 15 36 35l0 462c0 20-16 35-36 35l-140 0z m346 0c-19 0-35-15-35-35l0-462c0-20 16-35 35-35l140 0c20 0 36 15 36 35l0 462c0 20-16 35-36 35l-140 0z" horiz-adv-x="1000" />

<glyph glyph-name="logo_webtek" unicode="&#xe804;" d="M601 343l29 99 166-88-184 457c-36 9-73 14-111 14-262 0-473-213-473-474 0-69 15-135 42-195l450-84 30 98-272 335 323-162z m-510-229c81-142 234-239 410-239 35 0 70 4 103 11l-513 228z m510 229l-51-171 188-233c87 51 156 130 197 224l-334 180z m370-33c1 14 1 26 1 39 0 208-132 384-317 449l316-488z" horiz-adv-x="1000" />
</font>
</defs>
</svg>