{
    "codice": "TP.2.0.0",
    "release": "1.0",
    "descrizione": "Questo modulo permette l'inserimento di un titolo, un sottotitolo, ed un link, con l'aggiunta di 1 immagine a scorrimento parallax",
    "releaseDate": "2017-02-10",
    "duplicabile": true,
    "assets": {
        "js": [
            "/public/lib/parallax.js"
        ]
    }
}
