{
    "codice": "T.2.0.0",
    "release": "1.0",
    "releaseDate": "2017-02-08",
    "nome": "Header con immagine al centro e sfondo fullpage",
    "descrizione": "Header con immagine al centro e sfondo fullpage",
    "duplicabile": true,
    "config": [
        {
            "var": "bg",
            "label": "Immagine Sfondo",
            "type": "backgroundImage",
            "dimensioni": "1920x1080",
            "types": [
                "jpg",
                "png",
                "gif",
                "jpeg"
            ],
            "multilang": false,
            "mandatory": true
        },
        {
            "var": "img",
            "label": "Immagine centro",
            "type": "image",
            "dimensioni": "600x600",
            "types": [
                "jpg",
                "png",
                "gif",
                "jpeg"
            ],
            "multilang": false,
            "mandatory": true
        },
        {
            "var": "id_sezione",
            "label": "Id sezione sottostante (mettere #)",
            "type": "link",
            "default": "",
            "multilang": false,
            "mandatory": true
        }
    ]
}
