{
    "nome": "blogList",
    "duplicabile": true,
    "backEnd": {
        "class": "AppBundle\\DataFormatter\\BlogFormatter",
        "method": "getPage"
    },
    "config": [
        {
            "var": "elementiPagina",
            "label": "Elementi per pagina",
            "type": "simpleText",
            "default": "4",
            "multilang": false,
            "mandatory": true
        }
    ]
}