{
    "nome": "Ecommerce - Lista Prodotti piu' venduti",
    "duplicabile": true,
    "backEnd": {
        "class": "Webtek\\EcommerceBundle\\DataFormatter\\ProductFormatter",
        "method": "getPiuVenduti"
    },
    "config": [
        {
            "var": "limit",
            "label": "Limite",
            "type": "simpleText",
            "default": "8",
            "multilang": false,
            "mandatory": true
        }
    ],
    "author": "gabricom"
}