{
    "author": "Gabriele 'gabricom' Colombera",
    "nome": "Slider due blocchi , testo e titolo a destra , possibilità di aprire le foto fullscreen",
    "duplicabile": true,
    "config": [
        {
            "var": "titolo",
            "label": "Titolo",
            "type": "mediumText",
            "multilang": true,
            "mandatory": false
        },
        {
            "var": "testo",
            "label": "Testo",
            "type": "mediumText",
            "multilang": true,
            "mandatory": true
        },
        {
            "var": "img",
            "label": "Immagine",
            "type": "image",
            "dimensioni": "33x47",
            "types": [
                "png",
                "jpg",
                "gif",
                "jpeg"
            ],
            "multilang": false,
            "mandatory": false
        },
        {
            "var": "background_img",
            "label": "Immagine Sfondo",
            "type": "image",
            "dimensioni": "1920x850",
            "types": [
                "png",
                "jpg",
                "gif",
                "jpeg"
            ],
            "multilang": false,
            "mandatory": true
        },
        {
            "var": "bg_img_block",
            "label": "Immagine Sfondo Blocco testo",
            "type": "image",
            "dimensioni": "1920x400",
            "types": [
                "png",
                "jpg",
                "gif",
                "jpeg"
            ],
            "multilang": false,
            "mandatory": true
        },
        {
            "var": "img_opzionale",
            "label": "Immagine opzionale ",
            "type": "image",
            "dimensioni": "33x47",
            "types": [
                "png",
                "jpg",
                "gif",
                "jpeg"
            ],
            "multilang": false,
            "mandatory": false
        },
        {
            "var": "mirror",
            "label": "Specchia modulo",
            "default": false,
            "type": "boolean",
            "multilang": false,
            "mandatory": true
        },
        {
            "var": "cover",
            "label": "Background-image cover su mobile",
            "default": false,
            "type": "boolean",
            "multilang": false,
            "mandatory": true
        }
    ]
}