{
    "nome": "Ecommerce Modulo visualizzazione dettagli ordine pagina privata cliente ",
    "duplicabile": true,
    "backEnd": {
        "class": "\\Webtek\\EcommerceBundle\\DataFormatter\\AccountFormatter",
        "method": "getOrder"
    },
    "config": []
}