{
    "codice": "ECOMMPRIVACYPOLICY.1.0.0",
    "release": "1.0",
    "releaseDate": "2017-07-31",
    "descrizione": "Modulo Privacy Policy ",
    "author": "gabricom",
    "assets": {
        "css": [
        ],
        "js": [
        ]
    }
}