{
    "nome": "Header con video",
    "duplicabile": true,
    "config": [
        {
            "var": "titolo1",
            "label": "Titolo 1",
            "type": "simpleText",
            "multilang": true,
            "mandatory": false
        },
        {
            "var": "titolo2",
            "label": "Titolo 2",
            "type": "simpleText",
            "mandatory": false,
            "multilang": true
        },
        {
            "var": "titolo3",
            "label": "Titolo 3",
            "type": "simpleText",
            "mandatory": false,
            "multilang": true
        },
        {
            "var": "link",
            "label": "Freccetta",
            "type": "link",
            "mandatory": true,
            "multilang": true
        },
        {
            "var": "img",
            "label": "Immagine poster",
            "type": "backgroundImage",
            "dimensioni": "1920x1080",
            "types": [
                "jpg",
                "png",
                "gif",
                "jpeg"
            ],
            "multilang": false,
            "mandatory": false
        },
        {
            "var": "logo",
            "label": "Immagine logo",
            "type": "image",
            "dimensioni": "1920x1080",
            "types": [
                "jpg",
                "png",
                "gif",
                "jpeg"
            ],
            "multilang": false,
            "mandatory": false
        },
        {
            "var": "mp4",
            "label": "Video Mp4",
            "type": "file",
            "types": [
                "mp4"
            ],
            "multilang": false,
            "mandatory": false
        },
        {
            "var": "webm",
            "label": "Video Webm",
            "type": "file",
            "types": [
                "webm"
            ],
            "multilang": false,
            "mandatory": false
        }
    ]
}