{
    "codice": "BDC.1.0.0",
    "release": "1.0",
    "releaseDate": "2017-03-02",
    "descrizione": "Modulo con foto laterale e form contatti per elmaviaggi",
    "author": "Giovanni Lenoci",
    "assets": {
        "css": [
            "/node_modules/eonasdan-bootstrap-datetimepicker/build/css/bootstrap-datetimepicker.min.css"
        ],
        "js": [
            "/node_modules/moment/min/moment-with-locales.min.js",
            "/node_modules/eonasdan-bootstrap-datetimepicker/build/js/bootstrap-datetimepicker.min.js",
            "/node_modules/jquery-match-height/dist/jquery.matchHeight-min.js",
            "/node_modules/jquery-form/dist/jquery.form.min.js"
        ]
    }
}