{
    "nome": "News Correlate",
    "duplicabile": true,
    "backEnd": {
        "class": "AppBundle\\DataFormatter\\BlogFormatter",
        "method": "getNews"
    },
    "config": [
        {
            "var": "titolo",
            "label": "Titolo",
            "type": "simpleText",
            "default": "Articoli correlati",
            "multilang": true,
            "mandatory": false
        },
        {
            "var": "quante",
            "label": "Numero di correlate da mostrare",
            "type": "simpleText",
            "default": 3,
            "multilang": false,
            "mandatory": true
        },
        {
            "var": "btn",
            "label": "Immagine pulsante scopri",
            "type": "image",
            "dimensioni": "100x40",
            "types": [
                "png",
                "jpg",
                "gif",
                "jpeg",
                "svg"
            ],
            "multilang": false,
            "mandatory": false
        }
    ]
}