{
    "nome": "Aderisci all'offerta",
    "duplicabile": true,
    "backEnd": {
        "class": null,
        "method": ""
    },
    "config": [
        {
            "type": "simpleText",
            "multilang": true,
            "var": "titolo1",
            "label": "Titolo 1",
            "mandatory": false,
            "help": "",
            "default": ""
        },
        {
            "type": "simpleText",
            "multilang": true,
            "var": "titolo2",
            "label": "Titolo 2",
            "mandatory": false,
            "help": "",
            "default": ""
        },
        {
            "type": "simpleText",
            "multilang": true,
            "var": "titoloRiquadro",
            "label": "Titolo riquadro",
            "mandatory": false,
            "help": "",
            "default": ""
        },
        {
            "type": "simpleText",
            "multilang": true,
            "var": "etichetta1",
            "label": "Etichetta 1",
            "mandatory": false,
            "help": "",
            "default": ""
        },
        {
            "type": "simpleText",
            "multilang": true,
            "var": "etichetta2",
            "label": "Etichetta 2",
            "mandatory": false,
            "help": "",
            "default": ""
        },
        {
            "type": "simpleText",
            "multilang": true,
            "var": "etichetta3",
            "label": "Etichetta 3",
            "mandatory": false,
            "help": "",
            "default": ""
        },
        {
            "type": "link",
            "multilang": true,
            "var": "link",
            "label": "Etichetta Link\u00f9",
            "mandatory": false,
            "help": "",
            "default": ""
        },
        {
            "type": "image",
            "multilang": false,
            "var": "icona1",
            "label": "Icona 1",
            "mandatory": false,
            "help": "",
            "default": "",
            "types": [
                "jpg",
                "png",
                "gif",
                "jpeg"
            ],
            "dimensioni": "300x200"
        },
        {
            "type": "image",
            "multilang": false,
            "var": "icona2",
            "label": "Icona 2",
            "mandatory": false,
            "help": "",
            "default": "",
            "types": [
                "jpg",
                "png",
                "gif",
                "jpeg"
            ],
            "dimensioni": "300x200"
        },
        {
            "type": "image",
            "multilang": false,
            "var": "icona3",
            "label": "Icona 3",
            "mandatory": false,
            "help": "",
            "default": "",
            "types": [
                "jpg",
                "png",
                "gif",
                "jpeg"
            ],
            "dimensioni": "300x200"
        }
    ]
}