{
    "nome": "Tree Menu",
    "duplicabile": true,
    "backEnd": {
        "class": "AppBundle\\DataFormatter\\MenuFormatter",
        "method": "getTreeData",
        "refetch": true
    },
    "config": [
        {
            "type": "simpleText",
            "multilang": false,
            "var": "level",
            "label": "Livello",
            "mandatory": true,
            "help": "",
            "default": "10"
        }
    ]
}