{
    "codice": "BDD.1.0.0",
    "release": "1.0",
    "releaseDate": "2017-03-23",
    "descrizione": "Box doppio diviso in 2 riquadri con immagine di sfondo, testo e link",
    "author": "Giovanni Lenoci",
    "css": [
        "/node_modules/aos/dist/aos.css"
    ],
    "js": [
        "/node_modules/aos/dist/aos.js",
        "/node_modules/jquery-match-height/dist/jquery.matchHeight-min.js",
        "/public/lib/modernizr-custom.js"
    ]
}