{
    "codice": "BL.1.0.0",
    "release": "1.0",
    "releaseDate": "2017 -02 -27",
    "descrizione": "Pagina di elenco del blog",
    "author": "Giovanni Lenoci",
    "assets": {
        "css": [],
        "js": [
            "/node_modules/jquery-match-height/dist/jquery.matchHeight-min.js"
        ]
    }
}