{
    "codice": "FPS.2.0.0",
    "release": "1.0",
    "releaseDate": "2017-03-30",
    "descrizione": "Modulo Fullpage con Box titolo testo a destra",
    "author": "Matteo Tognolini",
    "assets": {
        "css": [
            "/public/lib/fullpage/jquery.fullPage.css"
        ],
        "js": [
            "/public/lib/fullpage/jquery.fullPage.min.js"
        ]
    }
}
