{
    "nome": "Modulo news con titolo (TechAuto)",
    "duplicabile": true,
    "backEnd": {
        "class": "AppBundle\\DataFormatter\\BlogFormatter",
        "method": "getLastBlogPost"
    },
    "config": [
        {
            "var": "btn",
            "label": "Immagine pulsante scopri",
            "type": "image",
            "dimensioni": "100x40",
            "types": [
                "png",
                "jpg",
                "gif",
                "jpeg",
                "svg"
            ],
            "multilang": false,
            "mandatory": true
        },
        {
            "var": "quante",
            "label": "max",
            "type": "simpleText",
            "default": "2",
            "multilang": false,
            "mandatory": true
        }
    ]
}
