{
    "codice": "SSL.2.0.0",
    "release": "1.0",
    "releaseDate": "2017-01-23",
    "descrizione": "Slider semplice utilizzando slick slider",
    "assets": {
        "css": [
            "/node_modules/slick-carousel/slick/slick.css",
            "/node_modules/slick-carousel/slick/slick-theme.css"
        ],
        "js": [
            "/node_modules/slick-carousel/slick/slick.min.js"
        ]
    }
}
