{
    "codice": "TS.2.0.0",
    "release": "1.0",
    "releaseDate": "2017-02-15",
    "duplicabile": true,
    "descrizione": "Box con testo a full width",
    "author": "Matteo Tognolini",
    "assets": {
        "js": [
            "/public/lib/jquery.fittext.js"
        ]
    }
}
