{
    "nome": "Slider tabs bootstrap",
    "duplicabile": true,
    "backEnd": {
        "class": "AppBundle\\DataFormatter\\VetrinaFormatter",
        "method": "getData"
    },
    "config": [
        {
            "var": "category",
            "label": "Nome Categoria",
            "type": "simpleText",
            "default": "default",
            "multilang": false,
            "mandatory": true
        }
    ]
}
