{
    "codice": "SEPARATOR.1.0.0",
    "release": "1.0",
    "releaseDate": "2017-03-21",
    "duplicabile": true,
    "descrizione": "Separatore di pagina con immagine grafica (per creare effetti onda e simili )"
}