{
    "codice": "TET.2.0.0",
    "release": "1.0",
    "releaseDate": "2017-03-23",
    "descrizione": "Mostra un titolo e un testo",
    "author": "Giovanni Lenoci",
    "assets": {
        "css": [
            "/node_modules/aos/dist/aos.css"
        ],
        "js": [
            "/node_modules/aos/dist/aos.js"
        ]
    }
}