{
    "nome": "Blog Archive",
    "duplicabile": true,
    "backEnd": {
        "class": "AppBundle\\DataFormatter\\BlogFormatter",
        "method": "getMonths"
    },
    "config": [
        {
            "var": "titolo",
            "label": "Titolo",
            "type": "simpleText",
            "default": "Archivio",
            "multilang": true,
            "mandatory": true
        },
        {
            "var": "quanti",
            "label": "Numero dei mesi da estrarre",
            "type": "simpleText",
            "default": "6",
            "multilang": false,
            "mandatory": true
        }
    ]
}