{
    "nome": "Form per la recensione di un prodotto",
    "duplicabile": true,
    "backEnd": {
        "class": "Webtek\\EcommerceBundle\\DataFormatter\\RecensioneFormatter",
        "method": "getData"
    },
    "config": [
        {
            "var": "titolo",
            "label": "Titolo",
            "type": "simpleText",
            "default": "",
            "multilang": true,
            "mandatory": true
        }
    ]
}