{
    "codice": "BC.2.0.0",
    "release": "1.0",
    "releaseDate": "2017-02-28",
    "descrizione": "Modulo per la generazione del breadcrumb, stile di elmaviaggi",
    "author": "Giovanni Lenoci"
}