{
    "codice": "BDCLLEI.1.0.0",
    "release": "1.0",
    "releaseDate": "2017-03-23",
    "descrizione": "Blocco doppio, a sinistra un titolo con un elenco di links, a destra immagine con slogan",
    "author": "Giovanni Lenoci",
    "assets": {
        "css": [
            "/node_modules/aos/dist/aos.css"
        ],
        "js": [
            "/node_modules/aos/dist/aos.js",
            "/node_modules/jquery-match-height/dist/jquery.matchHeight-min.js",
            "/public/lib/modernizr-custom.js"
        ]
    }
}