{
    "codice": "T4CSLIDER.1.0.0",
    "release": "1.0",
    "releaseDate": "2017-02-12",
    "nome": "Testo, quattro colonne e slider di presentazione dentro a un mac",
    "duplicabile": true,
    "author": "gabricom",
    "descrizione": "Testo, quattro colonne e slider di presentazione dentro a un mac",
    "backEnd": {
        "class": "",
        "method": ""
    },
    "assets": {
        "css": [
            "/node_modules/aos/dist/aos.css",
            "/node_modules/slick-carousel/slick/slick.css",
            "/node_modules/slick-carousel/slick/slick-theme.css"
        ],
        "js": [
            "/node_modules/aos/dist/aos.js",
            "/node_modules/slick-carousel/slick/slick.min.js"
        ]
    },
    "config": [
        {
            "var": "titolo",
            "label": "Titolo",
            "type": "simpleText",
            "default": "",
            "multilang": true,
            "mandatory": true
        },
        {
            "var": "sottotitolo",
            "label": "Sottotitolo",
            "type": "mediumText",
            "default": "",
            "multilang": true,
            "mandatory": true
        },
        {
            "var": "testo",
            "label": "Testo",
            "type": "mediumText",
            "default": "",
            "multilang": true,
            "mandatory": true
        },
        {
            "var": "column1_title",
            "label": "Titolo prima colonna",
            "type": "simpleText",
            "default": "",
            "multilang": true,
            "mandatory": false
        },
        {
            "var": "column1_text",
            "label": "Testo prima colonna",
            "type": "mediumText",
            "default": "",
            "multilang": true,
            "mandatory": false
        },
        {
            "var": "column1_icon",
            "label": "Icona",
            "type": "image",
            "types": [
                "jpg",
                "png",
                "gif",
                "jpeg"
            ],
            "dimensioni": "46x46",
            "mandatory": true,
            "multilang": false
        },
        {
            "var": "column2_title",
            "label": "Titolo seconda colonna",
            "type": "simpleText",
            "default": "",
            "multilang": true,
            "mandatory": false
        },
        {
            "var": "column2_text",
            "label": "Testo seconda colonna",
            "type": "mediumText",
            "default": "",
            "multilang": true,
            "mandatory": false
        },
        {
            "var": "column2_icon",
            "label": "Icona",
            "type": "image",
            "types": [
                "jpg",
                "png",
                "gif",
                "jpeg"
            ],
            "dimensioni": "46x46",
            "mandatory": true,
            "multilang": false
        },
        {
            "var": "column3_title",
            "label": "Titolo terza colonna",
            "type": "simpleText",
            "default": "",
            "multilang": true,
            "mandatory": false
        },
        {
            "var": "column3_text",
            "label": "Testo terza colonna",
            "type": "mediumText",
            "default": "",
            "multilang": true,
            "mandatory": false
        },
        {
            "var": "column3_icon",
            "label": "Icona",
            "type": "image",
            "types": [
                "jpg",
                "png",
                "gif",
                "jpeg"
            ],
            "dimensioni": "46x46",
            "mandatory": true,
            "multilang": false
        },
        {
            "var": "column4_title",
            "label": "Titolo quarta colonna",
            "type": "simpleText",
            "default": "",
            "multilang": true,
            "mandatory": false
        },
        {
            "var": "column4_text",
            "label": "Testo quarta colonna",
            "type": "mediumText",
            "default": "",
            "multilang": true,
            "mandatory": false
        },
        {
            "var": "column4_icon",
            "label": "Icona",
            "type": "image",
            "types": [
                "jpg",
                "png",
                "gif",
                "jpeg"
            ],
            "dimensioni": "46x46",
            "mandatory": true,
            "multilang": false
        },
        {
            "var": "mac",
            "label": "mac",
            "type": "image",
            "types": [
                "jpg",
                "png",
                "gif",
                "jpeg"
            ],
            "dimensioni": "864x498",
            "mandatory": true,
            "multilang": false
        },
        {
            "var": "slide1",
            "label": "Slide 1",
            "type": "image",
            "types": [
                "jpg",
                "png",
                "gif",
                "jpeg"
            ],
            "dimensioni": "650x410",
            "mandatory": true,
            "multilang": false,
            "group": "immagini_slider"
        },
        {
            "var": "slide2",
            "label": "Slide 2",
            "type": "image",
            "types": [
                "jpg",
                "png",
                "gif",
                "jpeg"
            ],
            "dimensioni": "650x410",
            "mandatory": true,
            "multilang": false,
            "group": "immagini_slider"
        },
        {
            "var": "slide3",
            "label": "Slide 3",
            "type": "image",
            "types": [
                "jpg",
                "png",
                "gif",
                "jpeg"
            ],
            "dimensioni": "650x410",
            "mandatory": true,
            "multilang": false,
            "group": "immagini_slider"
        },
        {
            "var": "slide4",
            "label": "Slide 4",
            "type": "image",
            "types": [
                "jpg",
                "png",
                "gif",
                "jpeg"
            ],
            "dimensioni": "650x410",
            "mandatory": false,
            "multilang": false,
            "group": "immagini_slider"
        },
        {
            "var": "slide5",
            "label": "Slide 5",
            "type": "image",
            "types": [
                "jpg",
                "png",
                "gif",
                "jpeg"
            ],
            "dimensioni": "650x410",
            "mandatory": false,
            "multilang": false,
            "group": "immagini_slider"
        },
        {
            "var": "slide6",
            "label": "Slide 6",
            "type": "image",
            "types": [
                "jpg",
                "png",
                "gif",
                "jpeg"
            ],
            "dimensioni": "650x410",
            "mandatory": false,
            "multilang": false,
            "group": "immagini_slider"
        },
        {
            "var": "slide7",
            "label": "Slide 7",
            "type": "image",
            "types": [
                "jpg",
                "png",
                "gif",
                "jpeg"
            ],
            "dimensioni": "650x410",
            "mandatory": false,
            "multilang": false,
            "group": "immagini_slider"
        },
        {
            "var": "slide8",
            "label": "Slide 8",
            "type": "image",
            "types": [
                "jpg",
                "png",
                "gif",
                "jpeg"
            ],
            "dimensioni": "650x410",
            "mandatory": false,
            "multilang": false,
            "group": "immagini_slider"
        },
        {
            "var": "slide9",
            "label": "Slide 9",
            "type": "image",
            "types": [
                "jpg",
                "png",
                "gif",
                "jpeg"
            ],
            "dimensioni": "650x410",
            "mandatory": false,
            "multilang": false,
            "group": "immagini_slider"
        },
        {
            "var": "slide10",
            "label": "Slide 10",
            "type": "image",
            "types": [
                "jpg",
                "png",
                "gif",
                "jpeg"
            ],
            "dimensioni": "650x410",
            "mandatory": false,
            "multilang": false,
            "group": "immagini_slider"
        }
    ]
}
