{
    "nome": "Otto Blocchi, Icone, titolo e testo",
    "backEnd": {
        "class": "",
        "method": ""
    },
    "config": [
        {
            "var": "numero_progr",
            "label": "Numero Progressivo Blocco",
            "type": "simpleText",
            "default": "",
            "multilang": false,
            "mandatory": true
        },
        {
            "var": "titolo",
            "label": "Titolo",
            "type": "simpleText",
            "default": "",
            "multilang": true,
            "mandatory": true
        },
        {
            "var": "testo",
            "label": "Testo",
            "type": "mediumText",
            "default": "",
            "multilang": true,
            "mandatory": true
        },
        {
            "var": "icona_box_1",
            "label": "Icona Box 1",
            "type": "image",
            "types": [
                "jpg",
                "png",
                "gif",
                "jpeg"
            ],
            "dimensioni": "40x40",
            "multilang": false,
            "mandatory": true
        },
        {
            "var": "titolo_box_1",
            "label": "Titolo Box 1",
            "type": "simpleText",
            "default": "",
            "multilang": true,
            "mandatory": true
        },
        {
            "var": "testo_box_1",
            "label": "Testo Box 1",
            "type": "simpleText",
            "default": "",
            "multilang": true,
            "mandatory": true
        },
        {
            "var": "icona_box_2",
            "label": "Icona Box 2",
            "type": "image",
            "types": [
                "jpg",
                "png",
                "gif",
                "jpeg"
            ],
            "dimensioni": "40x40",
            "multilang": false,
            "mandatory": true
        },
        {
            "var": "titolo_box_2",
            "label": "Titolo Box 2",
            "type": "simpleText",
            "default": "",
            "multilang": true,
            "mandatory": true
        },
        {
            "var": "testo_box_2",
            "label": "Testo Box 2",
            "type": "simpleText",
            "default": "",
            "multilang": true,
            "mandatory": true
        },
        {
            "var": "icona_box_3",
            "label": "Icona Box 3",
            "type": "image",
            "types": [
                "jpg",
                "png",
                "gif",
                "jpeg"
            ],
            "dimensioni": "40x40",
            "multilang": false,
            "mandatory": true
        },
        {
            "var": "titolo_box_3",
            "label": "Titolo Box 3",
            "type": "simpleText",
            "default": "",
            "multilang": true,
            "mandatory": true
        },
        {
            "var": "testo_box_3",
            "label": "Testo Box 3",
            "type": "simpleText",
            "default": "",
            "multilang": true,
            "mandatory": true
        },
        {
            "var": "icona_box_4",
            "label": "Icona Box 4",
            "type": "image",
            "types": [
                "jpg",
                "png",
                "gif",
                "jpeg"
            ],
            "dimensioni": "40x40",
            "multilang": false,
            "mandatory": true
        },
        {
            "var": "titolo_box_4",
            "label": "Titolo Box 4",
            "type": "simpleText",
            "default": "",
            "multilang": true,
            "mandatory": true
        },
        {
            "var": "testo_box_4",
            "label": "Testo Box 4",
            "type": "simpleText",
            "default": "",
            "multilang": true,
            "mandatory": true
        },
        {
            "var": "icona_box_5",
            "label": "Icona Box 5",
            "type": "image",
            "types": [
                "jpg",
                "png",
                "gif",
                "jpeg"
            ],
            "dimensioni": "40x40",
            "multilang": false,
            "mandatory": true
        },
        {
            "var": "titolo_box_5",
            "label": "Titolo Box 5",
            "type": "simpleText",
            "default": "",
            "multilang": true,
            "mandatory": true
        },
        {
            "var": "testo_box_5",
            "label": "Testo Box 5",
            "type": "simpleText",
            "default": "",
            "multilang": true,
            "mandatory": true
        },
        {
            "var": "icona_box_6",
            "label": "Icona Box 6",
            "type": "image",
            "types": [
                "jpg",
                "png",
                "gif",
                "jpeg"
            ],
            "dimensioni": "40x40",
            "multilang": false,
            "mandatory": true
        },
        {
            "var": "titolo_box_6",
            "label": "Titolo Box 6",
            "type": "simpleText",
            "default": "",
            "multilang": true,
            "mandatory": true
        },
        {
            "var": "testo_box_6",
            "label": "Testo Box 6",
            "type": "simpleText",
            "default": "",
            "multilang": true,
            "mandatory": true
        },
        {
            "var": "icona_box_7",
            "label": "Icona Box 7",
            "type": "image",
            "types": [
                "jpg",
                "png",
                "gif",
                "jpeg"
            ],
            "dimensioni": "40x40",
            "multilang": false,
            "mandatory": true
        },
        {
            "var": "titolo_box_7",
            "label": "Titolo Box 7",
            "type": "simpleText",
            "default": "",
            "multilang": true,
            "mandatory": true
        },
        {
            "var": "testo_box_7",
            "label": "Testo Box 7",
            "type": "simpleText",
            "default": "",
            "multilang": true,
            "mandatory": true
        }
    ]
}
