{
    "codice": "STABS.3.0.0",
    "release": "1.0",
    "releaseDate": "2017-03-29",
    "descrizione": "Slider a tabs con testo a sinistra e immagine a destra e animazioni",
    "duplicabile": true,
    "author": "Matteo Tognolini",
    "assets": {
        "js": [
            "/node_modules/waypoints/lib/jquery.waypoints.min.js",
            "/public/lib/touchPlugin/jquery.mobile-events.min.js"
        ]
    }
}
