{
    "codice": "ECOMMPRODLISTCORR.1.0.0",
    "release": "1.0",
    "releaseDate": "2017-06-18",
    "descrizione": "Modulo Lista Prodotti  scelti per te - Versione sexy desdy",
    "author": "gabricom",
    "assets": {
        "css": [
            "/node_modules/slick-carousel/slick/slick.css",
            "/node_modules/slick-carousel/slick/slick-theme.css"
        ],
        "js": [
            "/node_modules/jquery-match-height/dist/jquery.matchHeight-min.js",
            "/node_modules/slick-carousel/slick/slick.min.js",
            "/public/ecommerce/js/wishlist.js"
        ]
    }
}