{
    "codice": "W.2.0.0",
    "release": "1.0",
    "releaseDate": "2017-01-23",
    "duplicabile": true,
    "author": "Giovanni",
    "config": [
        {
            "var": "titolo",
            "label": "Titolo",
            "type": "simpleText",
            "multilang": true,
            "mandatory": true
        },
        {
            "var": "sottotitolo",
            "label": "Sottotitolo",
            "type": "simpleText",
            "multilang": true,
            "mandatory": true
        },
        {
            "var": "titolos1",
            "label": "Titolo sezione 1",
            "type": "simpleText",
            "mandatory": true,
            "multilang": true
        },
        {
            "var": "qty1",
            "label": "Quantità sezione 1",
            "type": "simpleText",
            "mandatory": true,
            "multilang": false
        },
        {
            "var": "iconas1",
            "label": "Icona sezione 1",
            "type": "image",
            "types": [
                "jpg",
                "png",
                "gif",
                "jpeg"
            ],
            "dimensioni": "51x49",
            "mandatory": true,
            "multilang": false
        },
        {
            "var": "bg1",
            "label": "Immagine riquadro 1",
            "type": "backgroundImage",
            "types": [
                "jpg",
                "png",
                "gif",
                "jpeg"
            ],
            "dimensioni": "450x450",
            "mandatory": true,
            "multilang": false
        },
        {
            "var": "titolos2",
            "label": "Titolo sezione 2",
            "type": "simpleText",
            "mandatory": true,
            "multilang": true
        },
        {
            "var": "qty2",
            "label": "Quantità sezione 2",
            "type": "simpleText",
            "mandatory": true,
            "multilang": false
        },
        {
            "var": "iconas2",
            "label": "Icona sezione 2",
            "type": "image",
            "types": [
                "jpg",
                "png",
                "gif",
                "jpeg"
            ],
            "dimensioni": "51x49",
            "mandatory": true,
            "multilang": false
        },
        {
            "var": "bg2",
            "label": "Immagine riquadro 2",
            "type": "backgroundImage",
            "types": [
                "jpg",
                "png",
                "gif",
                "jpeg"
            ],
            "dimensioni": "450x450",
            "mandatory": true,
            "multilang": false
        },
        {
            "var": "titolos3",
            "label": "Titolo sezione 3",
            "type": "simpleText",
            "mandatory": true,
            "multilang": true
        },
        {
            "var": "qty3",
            "label": "Quantità sezione 3",
            "type": "simpleText",
            "mandatory": true,
            "multilang": false
        },
        {
            "var": "iconas3",
            "label": "Icona sezione 3",
            "type": "image",
            "types": [
                "jpg",
                "png",
                "gif",
                "jpeg"
            ],
            "dimensioni": "51x49",
            "mandatory": true,
            "multilang": false
        },
        {
            "var": "bg3",
            "label": "Immagine riquadro 3",
            "type": "backgroundImage",
            "types": [
                "jpg",
                "png",
                "gif",
                "jpeg"
            ],
            "dimensioni": "450x450",
            "mandatory": true,
            "multilang": false
        },
        {
            "var": "titolos4",
            "label": "Titolo sezione 4",
            "type": "simpleText",
            "mandatory": true,
            "multilang": true
        },
        {
            "var": "qty4",
            "label": "Quantità sezione 4",
            "type": "simpleText",
            "mandatory": true,
            "multilang": false
        },
        {
            "var": "iconas4",
            "label": "Icona sezione 4",
            "type": "image",
            "types": [
                "jpg",
                "png",
                "gif",
                "jpeg"
            ],
            "dimensioni": "51x49",
            "mandatory": true,
            "multilang": false
        },
        {
            "var": "bg4",
            "label": "Immagine riquadro 4",
            "type": "backgroundImage",
            "types": [
                "jpg",
                "png",
                "gif",
                "jpeg"
            ],
            "dimensioni": "450x450",
            "mandatory": true,
            "multilang": false
        }
    ]
}