{
    "nome": "File Attachments",
    "duplicabile": true,
    "backEnd": {
        "class": "AppBundle\\DataFormatter\\AttachmentFormatter",
        "method": "getFiles"
    },
    "config": [
        {
            "type": "simpleText",
            "multilang": true,
            "var": "titolo",
            "label": "Titolo",
            "mandatory": false,
            "help": "",
            "default": ""
        }
    ]
}