{
    "codice": "MRC.1.0.0",
    "release": "1.0",
    "releaseDate": "2017-02-24",
    "descrizione": "Modulo menu utilizzato per Cantina Menegola (menù centrato)",
    "author": "Nicola Saccucci"
}
